module github.com/no-src/gofs

go 1.18

require (
	github.com/fsnotify/fsnotify v1.6.0
	github.com/gin-contrib/gzip v0.0.6
	github.com/gin-contrib/pprof v1.4.0
	github.com/gin-contrib/sessions v0.0.5
	github.com/gin-gonic/gin v1.8.2
	github.com/minio/minio-go/v7 v7.0.46
	github.com/no-src/log v0.1.9
	github.com/pkg/sftp v1.13.5
	github.com/robfig/cron/v3 v3.0.1
	github.com/schollz/progressbar/v3 v3.12.2
	golang.org/x/crypto v0.0.0-20220722155217-630584e8d5aa
	gopkg.in/yaml.v3 v3.0.1
)

require (
	github.com/boj/redistore v0.0.0-20180917114910-cd5dcc76aeff // indirect
	github.com/dustin/go-humanize v1.0.0 // indirect
	github.com/gin-contrib/sse v0.1.0 // indirect
	github.com/go-playground/locales v0.14.0 // indirect
	github.com/go-playground/universal-translator v0.18.0 // indirect
	github.com/go-playground/validator/v10 v10.11.1 // indirect
	github.com/goccy/go-json v0.9.11 // indirect
	github.com/gomodule/redigo v2.0.0+incompatible // indirect
	github.com/google/uuid v1.3.0 // indirect
	github.com/gorilla/context v1.1.1 // indirect
	github.com/gorilla/securecookie v1.1.1 // indirect
	github.com/gorilla/sessions v1.2.1 // indirect
	github.com/json-iterator/go v1.1.12 // indirect
	github.com/klauspost/compress v1.15.9 // indirect
	github.com/klauspost/cpuid/v2 v2.1.0 // indirect
	github.com/kr/fs v0.1.0 // indirect
	github.com/leodido/go-urn v1.2.1 // indirect
	github.com/mattn/go-isatty v0.0.16 // indirect
	github.com/mattn/go-runewidth v0.0.14 // indirect
	github.com/minio/md5-simd v1.1.2 // indirect
	github.com/minio/sha256-simd v1.0.0 // indirect
	github.com/mitchellh/colorstring v0.0.0-20190213212951-d06e56a500db // indirect
	github.com/modern-go/concurrent v0.0.0-20180306012644-bacd9c7ef1dd // indirect
	github.com/modern-go/reflect2 v1.0.2 // indirect
	github.com/pelletier/go-toml/v2 v2.0.6 // indirect
	github.com/quasoft/memstore v0.0.0-20191010062613-2bce066d2b0b // indirect
	github.com/rivo/uniseg v0.4.3 // indirect
	github.com/rs/xid v1.4.0 // indirect
	github.com/sirupsen/logrus v1.9.0 // indirect
	github.com/ugorji/go/codec v1.2.7 // indirect
	golang.org/x/net v0.4.0 // indirect
	golang.org/x/sys v0.3.0 // indirect
	golang.org/x/term v0.3.0 // indirect
	golang.org/x/text v0.5.0 // indirect
	google.golang.org/protobuf v1.28.1 // indirect
	gopkg.in/ini.v1 v1.66.6 // indirect
	gopkg.in/yaml.v2 v2.4.0 // indirect
)
